{
    "possibly_sensitive_appealable": false,
    "in_reply_to_status_id_str": null,
    "in_reply_to_status_id": null,
    "supplemental_language": null,
    "created_at": "Thu Apr 06 15:28:44 +0000 2017",
    "in_reply_to_user_id_str": null,
    "source": "<a href=\"http://twitter.com/download/iphone\" rel=\"nofollow\">Twitter for iPhone<\/a>",
    "possibly_sensitive_editable": true,
    "retweet_count": 0,
    "retweeted": false,
    "geo": null,
    "in_reply_to_screen_name": null,
    "is_quote_status": false,
    "id_str": "850007373145964544",
    "in_reply_to_user_id": null,
    "favorite_count": 0,
    "id": 850007373145964544,
    "text": "How many roads do you think?",
    "place": null,
    "lang": "en",
    "favorited": false,
    "possibly_sensitive": false,
    "coordinates": null,
    "truncated": false,
    "entities": {
        "urls": [],
        "hashtags": [],
        "user_mentions": [],
        "symbols": []
    },
    "contributors": null,
    "user": {
        "id_str": "813340954832748546",
        "id": 813340954832748546
    },
    "card": {
        "card_type_url": "http://card-type-url-is-deprecated.invalid",
        "card_platform": {
            "platform": {
                "audience": {
                    "bucket": null,
                    "name": "production"
                },
                "device": {
                    "name": "iPhone",
                    "version": "13"
                }
            }
        },
        "name": "poll2choice_text_only",
        "binding_values": {
            "choice1_count": {
                "string_value": "1",
                "type": "STRING"
            },
            "duration_minutes": {
                "string_value": "15",
                "type": "STRING"
            },
            "last_updated_datetime_utc": {
                "string_value": "2017-04-06T15:43:46Z",
                "type": "STRING"
            },
            "choice2_label": {
                "string_value": "57",
                "type": "STRING"
            },
            "counts_are_final": {
                "boolean_value": true,
                "type": "BOOLEAN"
            },
            "card_url": {
                "string_value": "https://twitter.com",
                "scribe_key": "card_url",
                "type": "STRING"
            },
            "end_datetime_utc": {
                "string_value": "2017-04-06T15:43:44Z",
                "type": "STRING"
            },
            "choice2_count": {
                "string_value": "0",
                "type": "STRING"
            },
            "api": {
                "string_value": "capi://passthrough/1",
                "type": "STRING"
            },
            "choice1_label": {
                "string_value": "42",
                "type": "STRING"
            }
        },
        "url": "card://850007372541992960"
    }
}
